…
    ## Warning in var(if (is.vector(x) || is.factor(x)) x else as.double(x), na.rm =
    ## na.rm): NAs introduced by coercion

    ##        Date     BMRCBUS     CLRCBUS     ESRCBUS     GERCBUS     LORCBUS 
    ##          NA   1.9651206   0.3333607  61.7581942   0.3657290 136.0019233 
    ##     NNRCBUS     PARCBUS     SORCBUS 
    ## 286.4640758  45.3295816   0.9139452

    ## # A tibble: 1,930 × 3
    ## # Groups:   MSN [8]
    ##    MSN     Value Date     
    ##    <chr>   <dbl> <yearmon>
    ##  1 CLRCBUS 1.47  Jan 2000 
    ##  2 CLRCBUS 1.09  Feb 2000 
    ##  3 CLRCBUS 0.848 Mar 2000 
    ##  4 CLRCBUS 0.967 Apr 2000 
    ##  5 CLRCBUS 0.648 May 2000 
    ##  6 CLRCBUS 0.656 Jun 2000 
    ##  7 CLRCBUS 0.792 Jul 2000 
    ##  8 CLRCBUS 0.81  Aug 2000 
    ##  9 CLRCBUS 0.67  Sep 2000 
    ## 10 CLRCBUS 0.531 Oct 2000 
    ## # … with 1,920 more rows
…
